﻿EntityName,EntityLabel,EntityDescription,LetterCode,SuperClass,IndividualOf,Example
PowerPlantComponentClassA,Two or more purposes or tasks,Two or more purposes or tasks,A,PowerPlantComponentClass,,
PowerPlantComponentAF,Manual intervention in process and display process quantities and states,Manual intervention in process and display process quantities and states,AF,,PowerPlantComponentClassA,
PowerPlantComponentAG,"Convert, process and store signals and information","Convert, process and store signals and information",AG,,PowerPlantComponentClassA,
PowerPlantComponentClassB,"Converting an input variable (physical property, condition or event) into a signal for further processing","Converting an input variable (physical property, condition or event) into a signal for further processing",B,PowerPlantComponentClass,,
PowerPlantComponentBA,Electrical potential,Electrical potential,BA,,PowerPlantComponentClassB,
PowerPlantComponentBC,Electrical current,Electrical current,BC,,PowerPlantComponentClassB,
PowerPlantComponentBD,Density,Density,BD,,PowerPlantComponentClassB,
PowerPlantComponentBE,Other electrical or electromagnetic variable,Other electrical or electromagnetic variable,BE,,PowerPlantComponentClassB,
PowerPlantComponentBF,Flow,Flow,BF,,PowerPlantComponentClassB,
PowerPlantComponentBG,"Gauge, position, length(including distance, elongation, amplitude)","Gauge, position, length(including distance, elongation, amplitude)",BG,,PowerPlantComponentClassB,
PowerPlantComponentBJ,Power,Power,BJ,,PowerPlantComponentClassB,
PowerPlantComponentBK,Time,Time,BK,,PowerPlantComponentClassB,
PowerPlantComponentBL,Level,Level,BL,,PowerPlantComponentClassB,
PowerPlantComponentBM,"Moisture, humidity","Moisture, humidity",BM,,PowerPlantComponentClassB,
PowerPlantComponentBP,"Pressure, vacuum","Pressure, vacuum",BP,,PowerPlantComponentClassB,
PowerPlantComponentBQ,"Quality (composition, concentration, purity, material property)","Quality (composition, concentration, purity, material property)",BQ,,PowerPlantComponentClassB,
PowerPlantComponentBR,Radiation,Radiation,BR,,PowerPlantComponentClassB,
PowerPlantComponentBS,"Speed, frequency (including acceleration)","Speed, frequency (including acceleration)",BS,,PowerPlantComponentClassB,
PowerPlantComponentBT,Temperature,Temperature,BT,,PowerPlantComponentClassB,
PowerPlantComponentBU,Multi-variable,Multi-variable,BU,,PowerPlantComponentClassB,
PowerPlantComponentBW,"Weight, force","Weight, force",BW,,PowerPlantComponentClassB,
PowerPlantComponentBX,Other quantities,Other quantities,BX,,PowerPlantComponentClassB,
PowerPlantComponentBZ,"Number of events, counts,combined tasks","Number of events, counts,combined tasks",BZ,,PowerPlantComponentClassB,
PowerPlantComponentClassC,"Storing of energy, information or material","Storing of energy, information or material",C,PowerPlantComponentClass,,
PowerPlantComponentCA,Capacitive storage of electric energy,Capacitive storage of electric energy,CA,,PowerPlantComponentClassC,
PowerPlantComponentCB,Inductive storage of electric energy,Inductive storage of electric energy,CB,,PowerPlantComponentClassC,
PowerPlantComponentCC,Chemical storage of electric energyNOTE Batteries seen as energy sourcesare assigned to main Class G.,Chemical storage of electric energyNOTE Batteries seen as energy sourcesare assigned to main Class G.,CC,,PowerPlantComponentClassC,
PowerPlantComponentCF,Storage of information,Storage of information,CF,,PowerPlantComponentClassC,
PowerPlantComponentCL,"Open storage of material at fixed location(collection, housing)","Open storage of material at fixed location(collection, housing)",CL,,PowerPlantComponentClassC,
PowerPlantComponentCM,"Closed storage of material at fixed location(collection, housing)","Closed storage of material at fixed location(collection, housing)",CM,,PowerPlantComponentClassC,
PowerPlantComponentCN,"Moveable storage of material (collection, housing)","Moveable storage of material (collection, housing)",CN,,PowerPlantComponentClassC,
PowerPlantComponentCP,Storage of thermal energy,Storage of thermal energy,CP,,PowerPlantComponentClassC,
PowerPlantComponentCQ,Storage of mechanical energy,Storage of mechanical energy,CQ,,PowerPlantComponentClassC,
PowerPlantComponentCZ,Combined tasks,Combined tasks,CZ,,PowerPlantComponentClassC,
PowerPlantComponentClassD,Reserved for future standardization,Reserved for future standardization,D,PowerPlantComponentClass,,
PowerPlantComponentClassE,Providing radiant or thermal energy,Providing radiant or thermal energy,E,PowerPlantComponentClass,,
PowerPlantComponentEA,Generation of electromagnetic radiation forlighting purposes using electrical energy,Generation of electromagnetic radiation forlighting purposes using electrical energy,EA,,PowerPlantComponentClassE,
PowerPlantComponentEB,Generation of heat by conversion of electrical energy,Generation of heat by conversion of electrical energy,EB,,PowerPlantComponentClassE,
PowerPlantComponentEC,Generation of cooling energy by conversion of electrical energy,Generation of cooling energy by conversion of electrical energy,EC,,PowerPlantComponentClassE,
PowerPlantComponentEE,Generation of other electromagnetic radiation by means of electrical energy,Generation of other electromagnetic radiation by means of electrical energy,EE,,PowerPlantComponentClassE,
PowerPlantComponentEF,Generation of electromagnetic radiation for signalling purposes,Generation of electromagnetic radiation for signalling purposes,EF,,PowerPlantComponentClassE,
PowerPlantComponentEL,Generation of electromagnetic radiation forlighting purposes by combustion of fossil fuels,Generation of electromagnetic radiation forlighting purposes by combustion of fossil fuels,EL,,PowerPlantComponentClassE,
PowerPlantComponentEM,Generation of heat by conversion of chemical energy,Generation of heat by conversion of chemical energy,EM,,PowerPlantComponentClassE,
PowerPlantComponentEN,Generation of cooling energy by conversion of chemical energy,Generation of cooling energy by conversion of chemical energy,EN,,PowerPlantComponentClassE,
PowerPlantComponentEP,Generation of heat by convection,Generation of heat by convection,EP,,PowerPlantComponentClassE,
PowerPlantComponentEQ,Generation of cooling energy by convection,Generation of cooling energy by convection,EQ,,PowerPlantComponentClassE,
PowerPlantComponentES,Generation of cooling energy by conversion of mechanical energy,Generation of cooling energy by conversion of mechanical energy,ES,,PowerPlantComponentClassE,
PowerPlantComponentET,Generation of heat by nuclear fission,Generation of heat by nuclear fission,ET,,PowerPlantComponentClassE,
PowerPlantComponentEU,Generation of particle radiation,Generation of particle radiation,EU,,PowerPlantComponentClassE,
PowerPlantComponentEZ,Combined tasks,Combined tasks,EZ,,PowerPlantComponentClassE,
PowerPlantComponentClassF,"Direct protection (self-acting) of a flow of energy, signals, personnel or equipment from dangerous or unwanted conditions. Including systems and equipment for protective purposes","Direct protection (self-acting) of a flow of energy, signals, personnel or equipment from dangerous or unwanted conditions. Including systems and equipment for protective purposes",F,PowerPlantComponentClass,,
PowerPlantComponentFA,Protection against overvoltage,Protection against overvoltage,FA,,PowerPlantComponentClassF,
PowerPlantComponentFB,Protection against residual current,Protection against residual current,FB,,PowerPlantComponentClassF,
PowerPlantComponentFC,Protection against overcurrent,Protection against overcurrent,FC,,PowerPlantComponentClassF,
PowerPlantComponentFE,Protection against other electrical hazards,Protection against other electrical hazards,FE,,PowerPlantComponentClassF,
PowerPlantComponentFL,Protection against hazardous pressure condition,Protection against hazardous pressure condition,FL,,PowerPlantComponentClassF,
PowerPlantComponentFM,Protection against effects of fire,Protection against effects of fire,FM,,PowerPlantComponentClassF,
PowerPlantComponentFN,Protection against hazardous operating condition or damage,Protection against hazardous operating condition or damage,FN,,PowerPlantComponentClassF,
PowerPlantComponentFP,"Protection against hazardous emission(e.g. radiation, chemical emissions, noise)","Protection against hazardous emission(e.g. radiation, chemical emissions, noise)",FP,,PowerPlantComponentClassF,
PowerPlantComponentFQ,Protection against hazards or unwanted situations for persons or animals (e.g. safeguarding),Protection against hazards or unwanted situations for persons or animals (e.g. safeguarding),FQ,,PowerPlantComponentClassF,
PowerPlantComponentFR,Protection against wear (e.g. corrosion),Protection against wear (e.g. corrosion),FR,,PowerPlantComponentClassF,
PowerPlantComponentFS,"Protection against environmental effects(e.g. weather, geophysical effects)","Protection against environmental effects(e.g. weather, geophysical effects)",FS,,PowerPlantComponentClassF,
PowerPlantComponentFZ,Combined tasks,Combined tasks,FZ,,PowerPlantComponentClassF,
PowerPlantComponentClassG,Initiating a flow of energy or material Generating signals used as information carriers or reference source,Initiating a flow of energy or material Generating signals used as information carriers or reference source,G,PowerPlantComponentClass,,
PowerPlantComponentGA,Initiation of an electrical energy flow by use of mechanical energy,Initiation of an electrical energy flow by use of mechanical energy,GA,,PowerPlantComponentClassG,
PowerPlantComponentGB,Initiation of an electrical energy flow by chemical conversion,Initiation of an electrical energy flow by chemical conversion,GB,,PowerPlantComponentClassG,
PowerPlantComponentGC,Initiation of an electrical energy flow using light,Initiation of an electrical energy flow using light,GC,,PowerPlantComponentClassG,
PowerPlantComponentGF,Generation of signals as an information carrier,Generation of signals as an information carrier,GF,,PowerPlantComponentClassG,
PowerPlantComponentGL,Initiation of a continuous flow of solid matter,Initiation of a continuous flow of solid matter,GL,,PowerPlantComponentClassG,
PowerPlantComponentGM,Initiation of a discontinuous flow of solid matter,Initiation of a discontinuous flow of solid matter,GM,,PowerPlantComponentClassG,
PowerPlantComponentGN,Reserved for future standardization,Reserved for future standardization,GN,,PowerPlantComponentClassG,
PowerPlantComponentGP,Initiation of a flow of liquid or flowable substances driven by an energy supply,Initiation of a flow of liquid or flowable substances driven by an energy supply,GP,,PowerPlantComponentClassG,
PowerPlantComponentGQ,Initiation of a flow of gaseous substances by amechanical driver,Initiation of a flow of gaseous substances by amechanical driver,GQ,,PowerPlantComponentClassG,
PowerPlantComponentGR,Reserved for future standardization,Reserved for future standardization,GR,,PowerPlantComponentClassG,
PowerPlantComponentGS,Initiation of a flow of liquid or gaseous substances by driving medium,Initiation of a flow of liquid or gaseous substances by driving medium,GS,,PowerPlantComponentClassG,
PowerPlantComponentGT,Initiation of a flow of liquid or gaseous substances by gravity,Initiation of a flow of liquid or gaseous substances by gravity,GT,,PowerPlantComponentClassG,
PowerPlantComponentGU,VGB add-on:Initiation of a flow by mobile means of transportation,VGB add-on:Initiation of a flow by mobile means of transportation,GU,,PowerPlantComponentClassG,
PowerPlantComponentGZ,Combined tasks,Combined tasks,GZ,,PowerPlantComponentClassG,
PowerPlantComponentClassH,Producing a new kind of material or product,Producing a new kind of material or product,H,PowerPlantComponentClass,,
PowerPlantComponentHL,Generation of a new product by assembling,Generation of a new product by assembling,HL,,PowerPlantComponentClassH,
PowerPlantComponentHM,"Separation of mixtures of substances by centrifugal forceVGB amendment: This process is related to letter code ""HN"" (mechanical processes)","Separation of mixtures of substances by centrifugal forceVGB amendment: This process is related to letter code ""HN"" (mechanical processes)",HM,,PowerPlantComponentClassH,
PowerPlantComponentHN,"Separation of mixtures of substances by gravityVGB modification: Separation of mixtures of substances by mechanical processes, e.g. classifying,  separating, filtering.This class includes also objects of letter codes HM, HQ, HR and HS in parts","Separation of mixtures of substances by gravityVGB modification: Separation of mixtures of substances by mechanical processes, e.g. classifying,  separating, filtering.This class includes also objects of letter codes HM, HQ, HR and HS in parts",HN,,PowerPlantComponentClassH,
PowerPlantComponentHP,"Separation of mixtures of substances by thermal processesVGB amendment: e.g. vaporization, destillation, absorption, extractionThis class contains partly objects of letter code letter HS","Separation of mixtures of substances by thermal processesVGB amendment: e.g. vaporization, destillation, absorption, extractionThis class contains partly objects of letter code letter HS",HP,,PowerPlantComponentClassH,
PowerPlantComponentHQ,"Separation of mixtures of substances by filtering or classificationVGB amendment: This process is related to letter code  ""HN"" (mechanical processes)","Separation of mixtures of substances by filtering or classificationVGB amendment: This process is related to letter code  ""HN"" (mechanical processes)",HQ,,PowerPlantComponentClassH,
PowerPlantComponentHR,"Separation of mixtures of substances by electrostatic or magnetic forcesVGB amendment: This process is related to letter code ""HN"" (mechanical processes)","Separation of mixtures of substances by electrostatic or magnetic forcesVGB amendment: This process is related to letter code ""HN"" (mechanical processes)",HR,,PowerPlantComponentClassH,
PowerPlantComponentHS,"Separation of mixtures of substances by physical processes VGB amendment: This process is related to letter letter ""HN"" ( mechanical processes) and ""HP"" (thermal processes)","Separation of mixtures of substances by physical processes VGB amendment: This process is related to letter letter ""HN"" ( mechanical processes) and ""HP"" (thermal processes)",HS,,PowerPlantComponentClassH,
PowerPlantComponentHT,Generation of new gaseous substances,Generation of new gaseous substances,HT,,PowerPlantComponentClassH,
PowerPlantComponentHU,Generation of new form of solid material bycrushing,Generation of new form of solid material bycrushing,HU,,PowerPlantComponentClassH,
PowerPlantComponentHV,Generation of new form of solid material bycoarsening,Generation of new form of solid material bycoarsening,HV,,PowerPlantComponentClassH,
PowerPlantComponentHW,Generation of new substances by mixing,Generation of new substances by mixing,HW,,PowerPlantComponentClassH,
PowerPlantComponentHX,Generation of new substances by chemicalreaction,Generation of new substances by chemicalreaction,HX,,PowerPlantComponentClassH,
PowerPlantComponentHY,Generation of new substances by biologicalreaction,Generation of new substances by biologicalreaction,HY,,PowerPlantComponentClassH,
PowerPlantComponentHZ,Combined tasks,Combined tasks,HZ,,PowerPlantComponentClassH,
PowerPlantComponentClassI,Not to be applied,Not to be applied,I,PowerPlantComponentClass,,
PowerPlantComponentClassJ,Reserved for future standardization,Reserved for future standardization,J,PowerPlantComponentClass,,
PowerPlantComponentClassK,"Processing (receiving, treating and providing) signals or information (excluding objects for protective purposes, see Class F)","Processing (receiving, treating and providing) signals or information (excluding objects for protective purposes, see Class F)",K,PowerPlantComponentClass,,
PowerPlantComponentKF,Processing of electrical and electronic signals ,Processing of electrical and electronic signals ,KF,,PowerPlantComponentClassK,
PowerPlantComponentKG,Processing of optical and acoustical signals,Processing of optical and acoustical signals,KG,,PowerPlantComponentClassK,
PowerPlantComponentKH,Processing of fluid and pneumatic signals,Processing of fluid and pneumatic signals,KH,,PowerPlantComponentClassK,
PowerPlantComponentKJ,Processing of mechanical signals,Processing of mechanical signals,KJ,,PowerPlantComponentClassK,
PowerPlantComponentKK,Processing of various input/output information carriers (e.g. electrical/pneumatic),Processing of various input/output information carriers (e.g. electrical/pneumatic),KK,,PowerPlantComponentClassK,
PowerPlantComponentKZ,Combined tasks,Combined tasks,KZ,,PowerPlantComponentClassK,
PowerPlantComponentClassM,Providing mechanical energy (rotational or linear mechanical motion) for driving purposes,Providing mechanical energy (rotational or linear mechanical motion) for driving purposes,M,PowerPlantComponentClass,,
PowerPlantComponentMA,Driving by electromagnetic force,Driving by electromagnetic force,MA,,PowerPlantComponentClassM,
PowerPlantComponentMB,Driving by magnetic force,Driving by magnetic force,MB,,PowerPlantComponentClassM,
PowerPlantComponentML,Driving by mechanical force,Driving by mechanical force,ML,,PowerPlantComponentClassM,
PowerPlantComponentMM,Driving by hydraulic or pneumatic force,Driving by hydraulic or pneumatic force,MM,,PowerPlantComponentClassM,
PowerPlantComponentMN,Driving by steam flow force,Driving by steam flow force,MN,,PowerPlantComponentClassM,
PowerPlantComponentMP,Driving by gas flow force,Driving by gas flow force,MP,,PowerPlantComponentClassM,
PowerPlantComponentMQ,Driving by wind force,Driving by wind force,MQ,,PowerPlantComponentClassM,
PowerPlantComponentMR,Driving by fluid flow force,Driving by fluid flow force,MR,,PowerPlantComponentClassM,
PowerPlantComponentMS,Driving by force using chemical conversion means,Driving by force using chemical conversion means,MS,,PowerPlantComponentClassM,
PowerPlantComponentMZ,Combined tasks,Combined tasks,MZ,,PowerPlantComponentClassM,
PowerPlantComponentClassN,Reserved for future standardization,Reserved for future standardization,N,PowerPlantComponentClass,,
PowerPlantComponentClassO,Not to be applied,Not to be applied,O,PowerPlantComponentClass,,
PowerPlantComponentClassP,Presenting information,Presenting information,P,PowerPlantComponentClass,,
PowerPlantComponentPF,Visible presentation of discrete states,Visible presentation of discrete states,PF,,PowerPlantComponentClassP,
PowerPlantComponentPG,Visible presentation of values of discrete variables,Visible presentation of values of discrete variables,PG,,PowerPlantComponentClassP,
PowerPlantComponentPH,"Visible presentation of information indrawing, pictorial and/or textual form","Visible presentation of information indrawing, pictorial and/or textual form",PH,,PowerPlantComponentClassP,
PowerPlantComponentPJ,Audible presentation of information,Audible presentation of information,PJ,,PowerPlantComponentClassP,
PowerPlantComponentPK,Tactile presentation of information,Tactile presentation of information,PK,,PowerPlantComponentClassP,
PowerPlantComponentPZ,Combined tasks,Combined tasks,PZ,,PowerPlantComponentClassP,
PowerPlantComponentClassQ,"Controlled switching or varying a flow of energy, of signals or of material (for signals in control circuits, see classes K and S) ","Controlled switching or varying a flow of energy, of signals or of material (for signals in control circuits, see classes K and S) ",Q,PowerPlantComponentClass,,
PowerPlantComponentQA,Switching and variation of electrical energycircuits,Switching and variation of electrical energycircuits,QA,,PowerPlantComponentClassQ,
PowerPlantComponentQB,Isolation of electrical energy circuits,Isolation of electrical energy circuits,QB,,PowerPlantComponentClassQ,
PowerPlantComponentQC,Earthing of electrical energy circuits,Earthing of electrical energy circuits,QC,,PowerPlantComponentClassQ,
PowerPlantComponentQL,Braking,Braking,QL,,PowerPlantComponentClassQ,
PowerPlantComponentQM,Switching of flow of flowable substances in closed enclosures,Switching of flow of flowable substances in closed enclosures,QM,,PowerPlantComponentClassQ,
PowerPlantComponentQN,Varying of flow of flowable substances in closed enclosures,Varying of flow of flowable substances in closed enclosures,QN,,PowerPlantComponentClassQ,
PowerPlantComponentQP,Switching or varying of flow of liquid substances in open enclosures,Switching or varying of flow of liquid substances in open enclosures,QP,,PowerPlantComponentClassQ,
PowerPlantComponentQQ,Providing access to an area,Providing access to an area,QQ,,PowerPlantComponentClassQ,
PowerPlantComponentQR,Shut-off of flow of flowable substances (no valves),Shut-off of flow of flowable substances (no valves),QR,,PowerPlantComponentClassQ,
PowerPlantComponentQS,Varying the fluctuation of reactivity at a nuclear reactor,Varying the fluctuation of reactivity at a nuclear reactor,QS,,PowerPlantComponentClassQ,
PowerPlantComponentQZ,Combined tasks,Combined tasks,QZ,,PowerPlantComponentClassQ,
PowerPlantComponentClassR,"Restricting or stabilizing motion or a flow of energy, information or material","Restricting or stabilizing motion or a flow of energy, information or material",R,PowerPlantComponentClass,,
PowerPlantComponentRA,Limiting a flow of electrical energy,Limiting a flow of electrical energy,RA,,PowerPlantComponentClassR,
PowerPlantComponentRB,Stabilizing a flow of electrical energy,Stabilizing a flow of electrical energy,RB,,PowerPlantComponentClassR,
PowerPlantComponentRF,Stabilizing a signal,Stabilizing a signal,RF,,PowerPlantComponentClassR,
PowerPlantComponentRL,Restricting an unauthorized operation and/or movement (mechanical),Restricting an unauthorized operation and/or movement (mechanical),RL,,PowerPlantComponentClassR,
PowerPlantComponentRM,"Restricting a return flow of gaseous, liquid andflowable substances","Restricting a return flow of gaseous, liquid andflowable substances",RM,,PowerPlantComponentClassR,
PowerPlantComponentRN,Restricting a flow of liquid and gaseoussubstances,Restricting a flow of liquid and gaseoussubstances,RN,,PowerPlantComponentClassR,
PowerPlantComponentRP,Restricting a sound propagation,Restricting a sound propagation,RP,,PowerPlantComponentClassR,
PowerPlantComponentRQ,Restricting a thermal flow,Restricting a thermal flow,RQ,,PowerPlantComponentClassR,
PowerPlantComponentRR,Restricting a mechanical effect,Restricting a mechanical effect,RR,,PowerPlantComponentClassR,
PowerPlantComponentRS,Restricting a chemical effect ,Restricting a chemical effect ,RS,,PowerPlantComponentClassR,
PowerPlantComponentRT,Restricting a light propagation,Restricting a light propagation,RT,,PowerPlantComponentClassR,
PowerPlantComponentRU,Restricting access to an area,Restricting access to an area,RU,,PowerPlantComponentClassR,
PowerPlantComponentRZ,Combined tasks,Combined tasks,RZ,,PowerPlantComponentClassR,
PowerPlantComponentClassS,Converting a manual operation into a signal for further processing,Converting a manual operation into a signal for further processing,S,PowerPlantComponentClass,,
PowerPlantComponentSF,Providing an electrical signal,Providing an electrical signal,SF,,PowerPlantComponentClassS,
PowerPlantComponentSG,"Providing an electromagnetic, optical or acoustical signal","Providing an electromagnetic, optical or acoustical signal",SG,,PowerPlantComponentClassS,
PowerPlantComponentSH,Providing a mechanical signal,Providing a mechanical signal,SH,,PowerPlantComponentClassS,
PowerPlantComponentSJ,Providing a fluid or pneumatic signal,Providing a fluid or pneumatic signal,SJ,,PowerPlantComponentClassS,
PowerPlantComponentSZ,Combined tasks,Combined tasks,SZ,,PowerPlantComponentClassS,
PowerPlantComponentClassT,"Conversion of energy maintaining the kind of energy, Conversion of an established signal maintaining the content of information, Conversion of the form or shape of a material ","Conversion of energy maintaining the kind of energy, Conversion of an established signal maintaining the content of information, Conversion of the form or shape of a material ",T,PowerPlantComponentClass,,
PowerPlantComponentTA,Converting electrical energy while retaining theenergy type and energy form,Converting electrical energy while retaining theenergy type and energy form,TA,,PowerPlantComponentClassT,
PowerPlantComponentTB,Converting electrical energy while retaining theenergy type and changing the energy form,Converting electrical energy while retaining theenergy type and changing the energy form,TB,,PowerPlantComponentClassT,
PowerPlantComponentTF,Converting signals (retention of informationcontent),Converting signals (retention of informationcontent),TF,,PowerPlantComponentClassT,
PowerPlantComponentTL,"Converting speed of rotation, torque, force into the same kind","Converting speed of rotation, torque, force into the same kind",TL,,PowerPlantComponentClassT,
PowerPlantComponentTM,Converting a mechanical form by machining,Converting a mechanical form by machining,TM,,PowerPlantComponentClassT,
PowerPlantComponentTN,Not used,Not used,TN,,PowerPlantComponentClassT,
PowerPlantComponentTP,Converting a mechanical form by cold forming(chipless deforming),Converting a mechanical form by cold forming(chipless deforming),TP,,PowerPlantComponentClassT,
PowerPlantComponentTQ,Converting a mechanical form by hot forming(chipless deforming),Converting a mechanical form by hot forming(chipless deforming),TQ,,PowerPlantComponentClassT,
PowerPlantComponentTR,Converting radiation energy while retaining energy form,Converting radiation energy while retaining energy form,TR,,PowerPlantComponentClassT,
PowerPlantComponentTZ,Combined tasks,Combined tasks,TZ,,PowerPlantComponentClassT,
PowerPlantComponentClassU,Keeping objects in a defined position,Keeping objects in a defined position,U,PowerPlantComponentClass,,
PowerPlantComponentUA,Holding and supporting electrical energyequipment,Holding and supporting electrical energyequipment,UA,,PowerPlantComponentClassU,
PowerPlantComponentUB,Holding and supporting electrical energy cables and conductors,Holding and supporting electrical energy cables and conductors,UB,,PowerPlantComponentClassU,
PowerPlantComponentUC,Enclosing and supporting electrical energyequipment,Enclosing and supporting electrical energyequipment,UC,,PowerPlantComponentClassU,
PowerPlantComponentUF,"Holding and supporting instrumentation, controland communication equipment","Holding and supporting instrumentation, controland communication equipment",UF,,PowerPlantComponentClassU,
PowerPlantComponentUG,"Holding and supporting instrumentation, controland communication cables and conductors","Holding and supporting instrumentation, controland communication cables and conductors",UG,,PowerPlantComponentClassU,
PowerPlantComponentUH,"Enclosing and supporting instrumentation, control and communication equipment","Enclosing and supporting instrumentation, control and communication equipment",UH,,PowerPlantComponentClassU,
PowerPlantComponentUL,Holding and supporting machinery,Holding and supporting machinery,UL,,PowerPlantComponentClassU,
PowerPlantComponentUM,Holding and supporting structural objects,Holding and supporting structural objects,UM,,PowerPlantComponentClassU,
PowerPlantComponentUN,Holding and supporting piping objects,Holding and supporting piping objects,UN,,PowerPlantComponentClassU,
PowerPlantComponentUP,Holding and guiding of shafts and rotors,Holding and guiding of shafts and rotors,UP,,PowerPlantComponentClassU,
PowerPlantComponentUQ,Holding and guiding objects for manufacturing orerection,Holding and guiding objects for manufacturing orerection,UQ,,PowerPlantComponentClassU,
PowerPlantComponentUR,Fastening and anchoring machinery,Fastening and anchoring machinery,UR,,PowerPlantComponentClassU,
PowerPlantComponentUS,"Spatial objects, housing and supporting otherobjects","Spatial objects, housing and supporting otherobjects",US,,PowerPlantComponentClassU,
PowerPlantComponentUT,VGB add-on:Holding and supporting of solid fuels,VGB add-on:Holding and supporting of solid fuels,UT,,PowerPlantComponentClassU,
PowerPlantComponentUZ,Combined tasks,Combined tasks,UZ,,PowerPlantComponentClassU,
PowerPlantComponentClassV,Processing (treating) of material or products  (including preparatory and post-treatment),Processing (treating) of material or products  (including preparatory and post-treatment),V,PowerPlantComponentClass,,
PowerPlantComponentVL,Filling material,Filling material,VL,,PowerPlantComponentClassV,
PowerPlantComponentVM,Packaging product,Packaging product,VM,,PowerPlantComponentClassV,
PowerPlantComponentVN,Treating surface,Treating surface,VN,,PowerPlantComponentClassV,
PowerPlantComponentVP,Treating material or product,Treating material or product,VP,,PowerPlantComponentClassV,
PowerPlantComponentVQ,"Cleaning material, product or facility","Cleaning material, product or facility",VQ,,PowerPlantComponentClassV,
PowerPlantComponentVZ,Combined tasks,Combined tasks,VZ,,PowerPlantComponentClassV,
PowerPlantComponentClassW,"Guiding or transporting energy, signals, material or products from one place toanother","Guiding or transporting energy, signals, material or products from one place toanother",W,PowerPlantComponentClass,,
PowerPlantComponentWA,Distributing high voltage electrical energy(> 1 000 V a.c. or > 1 500 V d.c.),Distributing high voltage electrical energy(> 1 000 V a.c. or > 1 500 V d.c.),WA,,PowerPlantComponentClassW,
PowerPlantComponentWB,Transporting high voltage electrical energy(> 1 000 V a.c. or > 1 500 V d.c.),Transporting high voltage electrical energy(> 1 000 V a.c. or > 1 500 V d.c.),WB,,PowerPlantComponentClassW,
PowerPlantComponentWC,Distributing low voltage electrical energy(≤ 1 000 V a.c. or ≤ 1 500 V d.c.),Distributing low voltage electrical energy(≤ 1 000 V a.c. or ≤ 1 500 V d.c.),WC,,PowerPlantComponentClassW,
PowerPlantComponentWD,Transporting low voltage electrical energy(≤ 1 000 V a.c. or ≤ 1 500 V d.c.),Transporting low voltage electrical energy(≤ 1 000 V a.c. or ≤ 1 500 V d.c.),WD,,PowerPlantComponentClassW,
PowerPlantComponentWE,Conducting earth potential or reference potential,Conducting earth potential or reference potential,WE,,PowerPlantComponentClassW,
PowerPlantComponentWF,Distributing electrical or electronic signal,Distributing electrical or electronic signal,WF,,PowerPlantComponentClassW,
PowerPlantComponentWG,Transporting electrical or electronic signal,Transporting electrical or electronic signal,WG,,PowerPlantComponentClassW,
PowerPlantComponentWH,Transporting and routing optical signal,Transporting and routing optical signal,WH,,PowerPlantComponentClassW,
PowerPlantComponentWL,Transporting material or product (not driven),Transporting material or product (not driven),WL,,PowerPlantComponentClassW,
PowerPlantComponentWM,Conducting or guiding flow of substance in open enclosure,Conducting or guiding flow of substance in open enclosure,WM,,PowerPlantComponentClassW,
PowerPlantComponentWN,"Conducting or guiding flow of substance inflexible, closed enclosure","Conducting or guiding flow of substance inflexible, closed enclosure",WN,,PowerPlantComponentClassW,
PowerPlantComponentWP,"Conducting or guiding flow of substance in rigid,closed enclosure","Conducting or guiding flow of substance in rigid,closed enclosure",WP,,PowerPlantComponentClassW,
PowerPlantComponentWQ,Transporting mechanical energy,Transporting mechanical energy,WQ,,PowerPlantComponentClassW,
PowerPlantComponentWR,Conducting or guiding track-bound transportequipment,Conducting or guiding track-bound transportequipment,WR,,PowerPlantComponentClassW,
PowerPlantComponentWS,Conducting or guiding persons(access equipment),Conducting or guiding persons(access equipment),WS,,PowerPlantComponentClassW,
PowerPlantComponentWT,Conducting or guiding mobile transport equipment,Conducting or guiding mobile transport equipment,WT,,PowerPlantComponentClassW,
PowerPlantComponentWZ,Combined tasks,Combined tasks,WZ,,PowerPlantComponentClassW,
PowerPlantComponentClassX,Connecting objects,Connecting objects,X,PowerPlantComponentClass,,
PowerPlantComponentXB,Connecting high voltage objects(> 1 000 V a.c. or > 1 500 V d.c.),Connecting high voltage objects(> 1 000 V a.c. or > 1 500 V d.c.),XB,,PowerPlantComponentClassX,
PowerPlantComponentXD,Connecting low voltage objects(≤ 1 000 V a.c. or ≤ 1 500 V d.c.),Connecting low voltage objects(≤ 1 000 V a.c. or ≤ 1 500 V d.c.),XD,,PowerPlantComponentClassX,
PowerPlantComponentXE,Connecting to earth potential or referencepotential,Connecting to earth potential or referencepotential,XE,,PowerPlantComponentClassX,
PowerPlantComponentXF,Connecting data network carriers,Connecting data network carriers,XF,,PowerPlantComponentClassX,
PowerPlantComponentXG,Connecting electrical signal carriers,Connecting electrical signal carriers,XG,,PowerPlantComponentClassX,
PowerPlantComponentXH,Connecting optical signal carriers,Connecting optical signal carriers,XH,,PowerPlantComponentClassX,
PowerPlantComponentXL,Connecting rigid enclosures for flows ofsubstances,Connecting rigid enclosures for flows ofsubstances,XL,,PowerPlantComponentClassX,
PowerPlantComponentXM,Connecting flexible enclosures for flows ofsubstances,Connecting flexible enclosures for flows ofsubstances,XM,,PowerPlantComponentClassX,
PowerPlantComponentXN,"Connecting objects for transport of mechanicalenergy, non-detachable","Connecting objects for transport of mechanicalenergy, non-detachable",XN,,PowerPlantComponentClassX,
PowerPlantComponentXP,"Connecting objects for transport of mechanicalenergy, detachable","Connecting objects for transport of mechanicalenergy, detachable",XP,,PowerPlantComponentClassX,
PowerPlantComponentXQ,Connecting objects irreversible,Connecting objects irreversible,XQ,,PowerPlantComponentClassX,
PowerPlantComponentXR,Connecting objects reversible,Connecting objects reversible,XR,,PowerPlantComponentClassX,
PowerPlantComponentXZ,Combined tasks,Combined tasks,XZ,,PowerPlantComponentClassX,
PowerPlantComponentClassY,Reserved for future standardization,Reserved for future standardization,Y,PowerPlantComponentClass,,
PowerPlantComponentClassZ,Reserved for future standardization,Reserved for future standardization,Z,PowerPlantComponentClass,,
